{
  "cryptocurrency": {
    "tools": {
      "item1": {
        "id": 1,
        "names": [
          "analytics",
          "Los Angeles Kings",
          "Golden State Warriros"
        ]
      },
      "item2": {
        "id": 2,
        "names": [
          "market_stat",
          "Boston Celtics",
          "Denver Nuggets"
        ]
      },
      "item3": {
        "id": 3,
        "names": [
          "spot",
          "Toronto Raptors",
          "Philadelphia 76ers"
        ]
      },
      "item4": {
        "id": 4,
        "names": [
          "wallet",
          "Chicago Bulls",
          "Atlanta Hawks"
        ]
      }
    }
  }
}